…
## Rows: 6,884
## Columns: 5
## $ date      <date> 1960-01-01, 1960-02-01, 1960-03-01, 1960-04-01, 1960-05-01,~
## $ series_id <chr> "TB3MS", "TB3MS", "TB3MS", "TB3MS", "TB3MS", "TB3MS", "TB3MS~
## $ value     <dbl> 4.35, 3.96, 3.31, 3.23, 3.29, 2.46, 2.30, 2.30, 2.48, 2.30, ~
## $ maturity  <chr> "3m", "3m", "3m", "3m", "3m", "3m", "3m", "3m", "3m", "3m", ~
## $ duration  <chr> "3-Month Treasury Bill", "3-Month Treasury Bill", "3-Month T~

## # A tibble: 6,884 x 5
## # Groups:   duration, date [6,884]
##    date       series_id value maturity duration             
##    <date>     <chr>     <dbl> <chr>    <fct>                
##  1 1960-01-01 TB3MS      4.35 3m       3-Month Treasury Bill
##  2 1960-02-01 TB3MS      3.96 3m       3-Month Treasury Bill
##  3 1960-03-01 TB3MS      3.31 3m       3-Month Treasury Bill
##  4 1960-04-01 TB3MS      3.23 3m       3-Month Treasury Bill
##  5 1960-05-01 TB3MS      3.29 3m       3-Month Treasury Bill
##  6 1960-06-01 TB3MS      2.46 3m       3-Month Treasury Bill
##  7 1960-07-01 TB3MS      2.3  3m       3-Month Treasury Bill
##  8 1960-08-01 TB3MS      2.3  3m       3-Month Treasury Bill
##  9 1960-09-01 TB3MS      2.48 3m       3-Month Treasury Bill
## 10 1960-10-01 TB3MS      2.3  3m       3-Month Treasury Bill
## # ... with 6,874 more rows
…
## # A tibble: 544 x 6
## # Groups:   duration [2]
##    date       series_id value maturity duration              year 
##    <date>     <chr>     <dbl> <chr>    <chr>                 <chr>
##  1 1999-01-01 TB3MS      4.34 3m       3-Month Treasury Bill 1999 
##  2 1999-02-01 TB3MS      4.44 3m       3-Month Treasury Bill 1999 
##  3 1999-03-01 TB3MS      4.44 3m       3-Month Treasury Bill 1999 
##  4 1999-04-01 TB3MS      4.29 3m       3-Month Treasury Bill 1999 
##  5 1999-05-01 TB3MS      4.5  3m       3-Month Treasury Bill 1999 
##  6 1999-06-01 TB3MS      4.57 3m       3-Month Treasury Bill 1999 
##  7 1999-07-01 TB3MS      4.55 3m       3-Month Treasury Bill 1999 
##  8 1999-08-01 TB3MS      4.72 3m       3-Month Treasury Bill 1999 
##  9 1999-09-01 TB3MS      4.68 3m       3-Month Treasury Bill 1999 
## 10 1999-10-01 TB3MS      4.86 3m       3-Month Treasury Bill 1999 
## # ... with 534 more rows
…
yield_curve$year <- format(yield_curve$date, format = "%Y") #create column showing the year associated with each data point

plot6 <- yield_curve %>% #create first dataframe that we will use to obtain desired plot
  mutate(month = month(date)) %>% #create column that indicates the month associated with each datapoint
  mutate(year = year(date)) %>% # create column that indicates the year associated with each datapoint
  filter(duration == "3-Month Treasury Bill") #filter the dataframe so that it only includes data corresponding to 3-Month Treasury Bills
 
plot6 #verify changes to the dataframe

## # A tibble: 740 x 7
##    date       series_id value maturity duration               year month
##    <date>     <chr>     <dbl> <chr>    <chr>                 <dbl> <dbl>
##  1 1960-01-01 TB3MS      4.35 3m       3-Month Treasury Bill  1960     1
##  2 1960-02-01 TB3MS      3.96 3m       3-Month Treasury Bill  1960     2
##  3 1960-03-01 TB3MS      3.31 3m       3-Month Treasury Bill  1960     3
##  4 1960-04-01 TB3MS      3.23 3m       3-Month Treasury Bill  1960     4
##  5 1960-05-01 TB3MS      3.29 3m       3-Month Treasury Bill  1960     5
##  6 1960-06-01 TB3MS      2.46 3m       3-Month Treasury Bill  1960     6
##  7 1960-07-01 TB3MS      2.3  3m       3-Month Treasury Bill  1960     7
##  8 1960-08-01 TB3MS      2.3  3m       3-Month Treasury Bill  1960     8
##  9 1960-09-01 TB3MS      2.48 3m       3-Month Treasury Bill  1960     9
## 10 1960-10-01 TB3MS      2.3  3m       3-Month Treasury Bill  1960    10
## # ... with 730 more rows

plot8 <- yield_curve %>% #create second dataframe that we will use to obtain desired plot
  mutate(month = month(date)) %>% #create column that indicates the month associated with each datapoint
  mutate(year = year(date)) %>% #create column that indicates the year associated with each datapoint
  filter(duration == "10-Year Treasury Rate") #filter the dataframe so that it only includes data corresponding to 10-Year Treasury Rates

plot8 #verify changes to the dataframe

## # A tibble: 740 x 7
##    date       series_id value maturity duration               year month
##    <date>     <chr>     <dbl> <chr>    <chr>                 <dbl> <dbl>
##  1 1960-01-01 GS10       4.72 10y      10-Year Treasury Rate  1960     1
##  2 1960-02-01 GS10       4.49 10y      10-Year Treasury Rate  1960     2
##  3 1960-03-01 GS10       4.25 10y      10-Year Treasury Rate  1960     3
##  4 1960-04-01 GS10       4.28 10y      10-Year Treasury Rate  1960     4
##  5 1960-05-01 GS10       4.35 10y      10-Year Treasury Rate  1960     5
##  6 1960-06-01 GS10       4.15 10y      10-Year Treasury Rate  1960     6
##  7 1960-07-01 GS10       3.9  10y      10-Year Treasury Rate  1960     7
##  8 1960-08-01 GS10       3.8  10y      10-Year Treasury Rate  1960     8
##  9 1960-09-01 GS10       3.8  10y      10-Year Treasury Rate  1960     9
## 10 1960-10-01 GS10       3.89 10y      10-Year Treasury Rate  1960    10
## # ... with 730 more rows

plotmerged <- left_join(plot6,plot8, by = "date") #left join dataframes created above by matching dates together

plotmerged <- plotmerged %>% #edit new combined dataframe
  mutate(spread = value.y - value.x) #create new column called spread; spread is the difference in yield between the 10-Year and the 3-Month treasuries

plotmerged #verify changes to the joined dataframe

## # A tibble: 740 x 14
##    date       series_id.x value.x maturity.x duration.x            year.x month.x
##    <date>     <chr>         <dbl> <chr>      <chr>                  <dbl>   <dbl>
##  1 1960-01-01 TB3MS          4.35 3m         3-Month Treasury Bill   1960       1
##  2 1960-02-01 TB3MS          3.96 3m         3-Month Treasury Bill   1960       2
##  3 1960-03-01 TB3MS          3.31 3m         3-Month Treasury Bill   1960       3
##  4 1960-04-01 TB3MS          3.23 3m         3-Month Treasury Bill   1960       4
##  5 1960-05-01 TB3MS          3.29 3m         3-Month Treasury Bill   1960       5
##  6 1960-06-01 TB3MS          2.46 3m         3-Month Treasury Bill   1960       6
##  7 1960-07-01 TB3MS          2.3  3m         3-Month Treasury Bill   1960       7
##  8 1960-08-01 TB3MS          2.3  3m         3-Month Treasury Bill   1960       8
##  9 1960-09-01 TB3MS          2.48 3m         3-Month Treasury Bill   1960       9
## 10 1960-10-01 TB3MS          2.3  3m         3-Month Treasury Bill   1960      10
## # ... with 730 more rows, and 7 more variables: series_id.y <chr>,
## #   value.y <dbl>, maturity.y <chr>, duration.y <chr>, year.y <dbl>,
## #   month.y <dbl>, spread <dbl>
…
